<?xml version="1.0" encoding="UTF-8" standalone="no"?>
<!-- Created with Inkscape (http://www.inkscape.org/) -->

<svg
   width="210mm"
   height="297mm"
   viewBox="0 0 210 297"
   version="1.1"
   id="svg5"
   inkscape:version="1.1.1 (3bf5ae0d25, 2021-09-20)"
   sodipodi:docname="Model_wahadla.svg"
   xmlns:inkscape="http://www.inkscape.org/namespaces/inkscape"
   xmlns:sodipodi="http://sodipodi.sourceforge.net/DTD/sodipodi-0.dtd"
   xmlns="http://www.w3.org/2000/svg"
   xmlns:svg="http://www.w3.org/2000/svg">
  <sodipodi:namedview
     id="namedview7"
     pagecolor="#ffffff"
     bordercolor="#666666"
     borderopacity="1.0"
     inkscape:pageshadow="2"
     inkscape:pageopacity="0.0"
     inkscape:pagecheckerboard="0"
     inkscape:document-units="mm"
     showgrid="false"
     inkscape:snap-object-midpoints="true"
     inkscape:zoom="0.7500982"
     inkscape:cx="440.60897"
     inkscape:cy="180.64301"
     inkscape:window-width="1280"
     inkscape:window-height="971"
     inkscape:window-x="1912"
     inkscape:window-y="-8"
     inkscape:window-maximized="1"
     inkscape:current-layer="layer1" />
  <defs
     id="defs2">
    <marker
       style="overflow:visible"
       id="marker47426"
       refX="0.0"
       refY="0.0"
       orient="auto"
       inkscape:stockid="Arrow1Mstart"
       inkscape:isstock="true">
      <path
         transform="scale(0.4) translate(10,0)"
         style="fill-rule:evenodd;fill:context-stroke;stroke:context-stroke;stroke-width:1.0pt"
         d="M 0.0,0.0 L 5.0,-5.0 L -12.5,0.0 L 5.0,5.0 L 0.0,0.0 z "
         id="path47424" />
    </marker>
    <marker
       style="overflow:visible;"
       id="Arrow1Mend"
       refX="0.0"
       refY="0.0"
       orient="auto"
       inkscape:stockid="Arrow1Mend"
       inkscape:isstock="true">
      <path
         transform="scale(0.4) rotate(180) translate(10,0)"
         style="fill-rule:evenodd;fill:context-stroke;stroke:context-stroke;stroke-width:1.0pt;"
         d="M 0.0,0.0 L 5.0,-5.0 L -12.5,0.0 L 5.0,5.0 L 0.0,0.0 z "
         id="path1171" />
    </marker>
    <marker
       style="overflow:visible"
       id="Arrow1Mstart"
       refX="0.0"
       refY="0.0"
       orient="auto"
       inkscape:stockid="Arrow1Mstart"
       inkscape:isstock="true">
      <path
         transform="scale(0.4) translate(10,0)"
         style="fill-rule:evenodd;fill:context-stroke;stroke:context-stroke;stroke-width:1.0pt"
         d="M 0.0,0.0 L 5.0,-5.0 L -12.5,0.0 L 5.0,5.0 L 0.0,0.0 z "
         id="path1168" />
    </marker>
    <marker
       style="overflow:visible"
       id="Arrow1Lstart"
       refX="0.0"
       refY="0.0"
       orient="auto"
       inkscape:stockid="Arrow1Lstart"
       inkscape:isstock="true">
      <path
         transform="scale(0.8) translate(12.5,0)"
         style="fill-rule:evenodd;fill:context-stroke;stroke:context-stroke;stroke-width:1.0pt"
         d="M 0.0,0.0 L 5.0,-5.0 L -12.5,0.0 L 5.0,5.0 L 0.0,0.0 z "
         id="path1162" />
    </marker>
    <marker
       style="overflow:visible;"
       id="Arrow1Lend"
       refX="0.0"
       refY="0.0"
       orient="auto"
       inkscape:stockid="Arrow1Lend"
       inkscape:isstock="true">
      <path
         transform="scale(0.8) rotate(180) translate(12.5,0)"
         style="fill-rule:evenodd;fill:context-stroke;stroke:context-stroke;stroke-width:1.0pt;"
         d="M 0.0,0.0 L 5.0,-5.0 L -12.5,0.0 L 5.0,5.0 L 0.0,0.0 z "
         id="path1165" />
    </marker>
    <marker
       style="overflow:visible"
       id="Arrow1Lend-5"
       refX="0"
       refY="0"
       orient="auto"
       inkscape:stockid="Arrow1Lend"
       inkscape:isstock="true">
      <path
         transform="matrix(-0.8,0,0,-0.8,-10,0)"
         style="fill:context-stroke;fill-rule:evenodd;stroke:context-stroke;stroke-width:1pt"
         d="M 0,0 5,-5 -12.5,0 5,5 Z"
         id="path1165-1" />
    </marker>
    <marker
       style="overflow:visible"
       id="Arrow1Lstart-2"
       refX="0"
       refY="0"
       orient="auto"
       inkscape:stockid="Arrow1Lstart"
       inkscape:isstock="true">
      <path
         transform="matrix(0.8,0,0,0.8,10,0)"
         style="fill:context-stroke;fill-rule:evenodd;stroke:context-stroke;stroke-width:1pt"
         d="M 0,0 5,-5 -12.5,0 5,5 Z"
         id="path1162-0" />
    </marker>
    <marker
       style="overflow:visible"
       id="Arrow1Lstart-2-7"
       refX="0"
       refY="0"
       orient="auto"
       inkscape:stockid="Arrow1Lstart"
       inkscape:isstock="true">
      <path
         transform="matrix(0.8,0,0,0.8,10,0)"
         style="fill:context-stroke;fill-rule:evenodd;stroke:context-stroke;stroke-width:1pt"
         d="M 0,0 5,-5 -12.5,0 5,5 Z"
         id="path1162-0-3" />
    </marker>
    <marker
       style="overflow:visible"
       id="Arrow1Lend-5-8"
       refX="0"
       refY="0"
       orient="auto"
       inkscape:stockid="Arrow1Lend"
       inkscape:isstock="true">
      <path
         transform="matrix(-0.8,0,0,-0.8,-10,0)"
         style="fill:context-stroke;fill-rule:evenodd;stroke:context-stroke;stroke-width:1pt"
         d="M 0,0 5,-5 -12.5,0 5,5 Z"
         id="path1165-1-7" />
    </marker>
    <marker
       style="overflow:visible"
       id="Arrow1Lend-5-6"
       refX="0"
       refY="0"
       orient="auto"
       inkscape:stockid="Arrow1Lend"
       inkscape:isstock="true">
      <path
         transform="matrix(-0.8,0,0,-0.8,-10,0)"
         style="fill:context-stroke;fill-rule:evenodd;stroke:context-stroke;stroke-width:1pt"
         d="M 0,0 5,-5 -12.5,0 5,5 Z"
         id="path1165-1-71" />
    </marker>
    <marker
       style="overflow:visible"
       id="Arrow1Lstart-2-2"
       refX="0"
       refY="0"
       orient="auto"
       inkscape:stockid="Arrow1Lstart"
       inkscape:isstock="true">
      <path
         transform="matrix(0.8,0,0,0.8,10,0)"
         style="fill:context-stroke;fill-rule:evenodd;stroke:context-stroke;stroke-width:1pt"
         d="M 0,0 5,-5 -12.5,0 5,5 Z"
         id="path1162-0-2" />
    </marker>
    <marker
       style="overflow:visible"
       id="Arrow1Lstart-2-7-2"
       refX="0"
       refY="0"
       orient="auto"
       inkscape:stockid="Arrow1Lstart"
       inkscape:isstock="true">
      <path
         transform="matrix(0.8,0,0,0.8,10,0)"
         style="fill:context-stroke;fill-rule:evenodd;stroke:context-stroke;stroke-width:1pt"
         d="M 0,0 5,-5 -12.5,0 5,5 Z"
         id="path1162-0-3-0" />
    </marker>
    <marker
       style="overflow:visible"
       id="Arrow1Lend-5-8-8"
       refX="0"
       refY="0"
       orient="auto"
       inkscape:stockid="Arrow1Lend"
       inkscape:isstock="true">
      <path
         transform="matrix(-0.8,0,0,-0.8,-10,0)"
         style="fill:context-stroke;fill-rule:evenodd;stroke:context-stroke;stroke-width:1pt"
         d="M 0,0 5,-5 -12.5,0 5,5 Z"
         id="path1165-1-7-9" />
    </marker>
    <marker
       style="overflow:visible"
       id="Arrow1Lend-5-0"
       refX="0"
       refY="0"
       orient="auto"
       inkscape:stockid="Arrow1Lend"
       inkscape:isstock="true">
      <path
         transform="matrix(-0.8,0,0,-0.8,-10,0)"
         style="fill:context-stroke;fill-rule:evenodd;stroke:context-stroke;stroke-width:1pt"
         d="M 0,0 5,-5 -12.5,0 5,5 Z"
         id="path1165-1-74" />
    </marker>
    <marker
       style="overflow:visible"
       id="Arrow1Lend-5-3"
       refX="0"
       refY="0"
       orient="auto"
       inkscape:stockid="Arrow1Lend"
       inkscape:isstock="true">
      <path
         transform="matrix(-0.8,0,0,-0.8,-10,0)"
         style="fill:context-stroke;fill-rule:evenodd;stroke:context-stroke;stroke-width:1pt"
         d="M 0,0 5,-5 -12.5,0 5,5 Z"
         id="path1165-1-2" />
    </marker>
    <marker
       style="overflow:visible"
       id="Arrow1Lstart-2-1"
       refX="0"
       refY="0"
       orient="auto"
       inkscape:stockid="Arrow1Lstart"
       inkscape:isstock="true">
      <path
         transform="matrix(0.8,0,0,0.8,10,0)"
         style="fill:context-stroke;fill-rule:evenodd;stroke:context-stroke;stroke-width:1pt"
         d="M 0,0 5,-5 -12.5,0 5,5 Z"
         id="path1162-0-8" />
    </marker>
  </defs>
  <g
     inkscape:label="Warstwa 1"
     inkscape:groupmode="layer"
     id="layer1">
    <path
       style="fill:none;stroke:#000000;stroke-width:0.264583px;stroke-linecap:butt;stroke-linejoin:miter;stroke-opacity:1"
       d="M 11.287409,60.3171 H 96.295726"
       id="path44" />
    <rect
       style="fill:#999999;fill-opacity:0.751004;stroke:#000000;stroke-width:0.165;stroke-opacity:1"
       id="rect68"
       width="24.955761"
       height="15.784739"
       x="41.445969"
       y="44.09145" />
    <path
       style="fill:none;stroke:#000000;stroke-width:0.264583px;stroke-linecap:butt;stroke-linejoin:miter;stroke-opacity:1;marker-end:url(#Arrow1Lend)"
       d="m 53.823989,52.146044 -0.04409,15.82883"
       id="path8131" />
    <path
       style="fill:none;stroke:#000000;stroke-width:0.264583px;stroke-linecap:butt;stroke-linejoin:miter;stroke-opacity:1;marker-start:url(#Arrow1Lstart)"
       d="M 46.913301,59.699822 46.736935,73.632719"
       id="path8133" />
    <path
       style="fill:none;stroke:#000000;stroke-width:0.264583px;stroke-linecap:butt;stroke-linejoin:miter;stroke-opacity:1;marker-end:url(#Arrow1Lend)"
       d="m 41.445966,59.876185 -7.142821,0.176366"
       id="path8143" />
    <path
       style="fill:none;stroke:#000000;stroke-width:0.306701px;stroke-linecap:butt;stroke-linejoin:miter;stroke-opacity:1;marker-end:url(#Arrow1Lend)"
       d="M 23.851164,49.470605 41.269595,49.206056"
       id="path8145" />
    <path
       style="fill:none;stroke:#000000;stroke-width:0.264583px;stroke-linecap:butt;stroke-linejoin:miter;stroke-opacity:1;marker-end:url(#Arrow1Lend)"
       d="M 54.144299,34.479512 53.87975,43.826899"
       id="path8147" />
    <path
       style="fill:none;stroke:#000000;stroke-width:0.264583px;stroke-linecap:butt;stroke-linejoin:miter;stroke-opacity:1;marker-start:url(#Arrow1Lstart)"
       d="m 66.401726,44.091449 h 11.72833"
       id="path8149" />
    <text
       xml:space="preserve"
       style="font-style:normal;font-weight:normal;font-size:4.58611px;line-height:1.25;font-family:sans-serif;fill:#000000;fill-opacity:1;stroke:none;stroke-width:0.173403"
       x="59.710732"
       y="60.87207"
       id="text9707"
       transform="scale(1.0349226,0.96625583)"><tspan
         sodipodi:role="line"
         id="tspan9705"
         style="font-size:4.58611px;stroke-width:0.173403"
         x="59.710732"
         y="60.87207">M</tspan></text>
    <text
       xml:space="preserve"
       style="font-style:normal;font-weight:normal;font-size:4.23333px;line-height:1.25;font-family:sans-serif;fill:#000000;fill-opacity:1;stroke:none;stroke-width:0.264583"
       x="42.856895"
       y="75.131821"
       id="text14813"><tspan
         sodipodi:role="line"
         id="tspan14811"
         style="font-size:4.23333px;stroke-width:0.264583"
         x="42.856895"
         y="75.131821">N</tspan></text>
    <text
       xml:space="preserve"
       style="font-style:normal;font-weight:normal;font-size:4.23333px;line-height:1.25;font-family:sans-serif;fill:#000000;fill-opacity:1;stroke:none;stroke-width:0.264583"
       x="27.601248"
       y="47.001484"
       id="text18393"><tspan
         sodipodi:role="line"
         id="tspan18391"
         style="font-size:4.23333px;stroke-width:0.264583"
         x="27.601248"
         y="47.001484">F</tspan></text>
    <text
       xml:space="preserve"
       style="font-style:normal;font-weight:normal;font-size:3.175px;line-height:1.25;font-family:sans-serif;fill:#000000;fill-opacity:1;stroke:none;stroke-width:0.264583"
       x="29.012175"
       y="48.147861"
       id="text19585"><tspan
         sodipodi:role="line"
         id="tspan19583"
         style="font-size:3.175px;stroke-width:0.264583"
         x="29.012175"
         y="48.147861">v</tspan></text>
    <text
       xml:space="preserve"
       style="font-style:normal;font-weight:normal;font-size:4.23333px;line-height:1.25;font-family:sans-serif;fill:#000000;fill-opacity:1;stroke:none;stroke-width:0.264583"
       x="54.776215"
       y="35.224789"
       id="text18393-1"><tspan
         sodipodi:role="line"
         id="tspan18391-0"
         style="font-size:4.23333px;stroke-width:0.264583"
         x="54.776215"
         y="35.224789">F</tspan></text>
    <text
       xml:space="preserve"
       style="font-style:normal;font-weight:normal;font-size:4.23333px;line-height:1.25;font-family:sans-serif;fill:#000000;fill-opacity:1;stroke:none;stroke-width:0.264583"
       x="76.998299"
       y="42.896702"
       id="text18393-1-6"><tspan
         sodipodi:role="line"
         id="tspan18391-0-6"
         style="font-size:4.23333px;stroke-width:0.264583"
         x="76.998299"
         y="42.896702">F</tspan></text>
    <text
       xml:space="preserve"
       style="font-style:normal;font-weight:normal;font-size:10.5833px;line-height:1.25;font-family:sans-serif;fill:#000000;fill-opacity:1;stroke:none;stroke-width:0.264583"
       x="58.288895"
       y="18.606592"
       id="text26637"><tspan
         sodipodi:role="line"
         id="tspan26635"
         style="stroke-width:0.264583" /></text>
    <text
       xml:space="preserve"
       style="font-style:normal;font-weight:normal;font-size:3.175px;line-height:1.25;font-family:sans-serif;fill:#000000;fill-opacity:1;stroke:none;stroke-width:0.264583"
       x="78.292854"
       y="43.899094"
       id="text19585-2"><tspan
         sodipodi:role="line"
         id="tspan19583-4"
         style="font-size:3.175px;stroke-width:0.264583"
         x="78.292854"
         y="43.899094">x</tspan></text>
    <text
       xml:space="preserve"
       style="font-style:normal;font-weight:normal;font-size:3.175px;line-height:1.25;font-family:sans-serif;fill:#000000;fill-opacity:1;stroke:none;stroke-width:0.264583"
       x="56.158951"
       y="36.403545"
       id="text19585-7"><tspan
         sodipodi:role="line"
         id="tspan19583-1"
         style="font-size:3.175px;stroke-width:0.264583"
         x="56.158951"
         y="36.403545">y</tspan></text>
    <text
       xml:space="preserve"
       style="font-style:normal;font-weight:normal;font-size:4.58611px;line-height:1.25;font-family:sans-serif;fill:#000000;fill-opacity:1;stroke:none;stroke-width:0.173403"
       x="53.281765"
       y="72.57811"
       id="text9707-2"
       transform="scale(1.0349226,0.96625583)"><tspan
         sodipodi:role="line"
         id="tspan9705-2"
         style="font-size:4.58611px;stroke-width:0.173403"
         x="53.281765"
         y="72.57811">M</tspan></text>
    <text
       xml:space="preserve"
       style="font-style:normal;font-weight:normal;font-size:4.58611px;line-height:1.25;font-family:sans-serif;fill:#000000;fill-opacity:1;stroke:none;stroke-width:0.173403"
       x="56.923817"
       y="72.707611"
       id="text9707-2-1"
       transform="scale(1.0349226,0.96625583)"><tspan
         sodipodi:role="line"
         id="tspan9705-2-2"
         style="font-size:4.58611px;stroke-width:0.173403"
         x="56.923817"
         y="72.707611">g</tspan></text>
    <text
       xml:space="preserve"
       style="font-style:normal;font-weight:normal;font-size:4.23333px;line-height:1.25;font-family:sans-serif;fill:#000000;fill-opacity:1;stroke:none;stroke-width:0.264583"
       x="32.113205"
       y="64.633789"
       id="text18393-8"><tspan
         sodipodi:role="line"
         id="tspan18391-4"
         style="font-size:4.23333px;stroke-width:0.264583"
         x="32.113205"
         y="64.633789">F</tspan></text>
    <text
       xml:space="preserve"
       style="font-style:normal;font-weight:normal;font-size:3.175px;line-height:1.25;font-family:sans-serif;fill:#000000;fill-opacity:1;stroke:none;stroke-width:0.264583"
       x="33.407761"
       y="66.297546"
       id="text19585-1"><tspan
         sodipodi:role="line"
         id="tspan19583-2"
         style="font-size:3.175px;stroke-width:0.264583"
         x="33.407761"
         y="66.297546">f</tspan></text>
    <path
       style="fill:none;stroke:#000000;stroke-width:0.218905;stroke-linecap:butt;stroke-linejoin:miter;stroke-miterlimit:4;stroke-dasharray:0.656715, 0.218905;stroke-dashoffset:0;stroke-opacity:1"
       d="m 124.5055,32.30884 0.17637,29.24423"
       id="path40303" />
    <path
       style="fill:#588f90;fill-opacity:1;stroke:#6b6875;stroke-width:0.665;stroke-linecap:butt;stroke-linejoin:miter;stroke-miterlimit:4;stroke-dasharray:none;stroke-opacity:1"
       d="M 124.68187,61.55307 140.20206,34.12819"
       id="path40418" />
    <path
       style="fill:none;stroke:#000000;stroke-width:0.264583px;stroke-linecap:butt;stroke-linejoin:miter;stroke-opacity:1;marker-end:url(#Arrow1Lend-5)"
       d="m 124.41732,70.90046 0.26455,-9.34739"
       id="path8147-2" />
    <text
       xml:space="preserve"
       style="font-style:normal;font-weight:normal;font-size:4.23333px;line-height:1.25;font-family:sans-serif;fill:#000000;fill-opacity:1;stroke:none;stroke-width:0.264583"
       x="125.43748"
       y="72.599396"
       id="text18393-1-3"><tspan
         sodipodi:role="line"
         id="tspan18391-0-5"
         style="font-size:4.23333px;stroke-width:0.264583"
         x="125.43748"
         y="72.599396">F</tspan></text>
    <text
       xml:space="preserve"
       style="font-style:normal;font-weight:normal;font-size:3.175px;line-height:1.25;font-family:sans-serif;fill:#000000;fill-opacity:1;stroke:none;stroke-width:0.264583"
       x="126.82021"
       y="73.778152"
       id="text19585-7-9"><tspan
         sodipodi:role="line"
         id="tspan19583-1-0"
         style="font-size:3.175px;stroke-width:0.264583"
         x="126.82021"
         y="73.778152">y</tspan></text>
    <path
       style="fill:none;stroke:#000000;stroke-width:0.264583px;stroke-linecap:butt;stroke-linejoin:miter;stroke-opacity:1;marker-start:url(#Arrow1Lstart-2)"
       d="M 124.68187,61.55307 H 112.95353"
       id="path8149-9" />
    <text
       xml:space="preserve"
       style="font-style:normal;font-weight:normal;font-size:4.23333px;line-height:1.25;font-family:sans-serif;fill:#000000;fill-opacity:1;stroke:none;stroke-width:0.264583"
       x="112.29471"
       y="59.618233"
       id="text18393-1-6-0"><tspan
         sodipodi:role="line"
         id="tspan18391-0-6-7"
         style="font-size:4.23333px;stroke-width:0.264583"
         x="112.29471"
         y="59.618233">F</tspan></text>
    <text
       xml:space="preserve"
       style="font-style:normal;font-weight:normal;font-size:3.175px;line-height:1.25;font-family:sans-serif;fill:#000000;fill-opacity:1;stroke:none;stroke-width:0.264583"
       x="113.58926"
       y="60.620628"
       id="text19585-2-1"><tspan
         sodipodi:role="line"
         id="tspan19583-4-4"
         style="font-size:3.175px;stroke-width:0.264583"
         x="113.58926"
         y="60.620628">x</tspan></text>
    <path
       style="fill:none;stroke:#000000;stroke-width:0.264583px;stroke-linecap:butt;stroke-linejoin:miter;stroke-opacity:1;marker-start:url(#Arrow1Lstart-2-7)"
       d="m 139.19568,45.59197 c -2.60142,-4.24132 -3.92431,-10.44807 -8.73012,-0.35273"
       id="path8149-9-6"
       sodipodi:nodetypes="cc" />
    <path
       style="fill:none;stroke:#000000;stroke-width:0.231877px;stroke-linecap:butt;stroke-linejoin:miter;stroke-opacity:1;marker-end:url(#Arrow1Lend-5-8)"
       d="m 132.44196,47.84063 -0.26455,7.17931"
       id="path8147-2-6" />
    <text
       xml:space="preserve"
       style="font-style:normal;font-weight:normal;font-size:4.23333px;line-height:1.25;font-family:sans-serif;fill:#000000;fill-opacity:1;stroke:none;stroke-width:0.264583"
       x="133.00931"
       y="56.348732"
       id="text18393-1-3-6"><tspan
         sodipodi:role="line"
         id="tspan18391-0-5-4"
         style="font-size:4.23333px;stroke-width:0.264583"
         x="133.00931"
         y="56.348732">mg</tspan></text>
    <path
       style="fill:none;stroke:#000000;stroke-width:0.226513;stroke-linecap:butt;stroke-linejoin:miter;stroke-miterlimit:4;stroke-dasharray:0.679538, 0.226513;stroke-dashoffset:0;stroke-opacity:1"
       d="m 177.53027,32.695818 0.17608,31.361164"
       id="path40303-0" />
    <path
       style="fill:#588f90;fill-opacity:1;stroke:#6b6875;stroke-width:0.665;stroke-linecap:butt;stroke-linejoin:miter;stroke-miterlimit:4;stroke-dasharray:none;stroke-opacity:1"
       d="m 177.70649,64.05671 15.5202,-27.42488"
       id="path40418-7" />
    <path
       style="fill:none;stroke:#000000;stroke-width:0.231877px;stroke-linecap:butt;stroke-linejoin:miter;stroke-opacity:1;marker-end:url(#Arrow1Lend-5-8-8)"
       d="m 185.46659,50.34427 -0.26455,7.17931"
       id="path8147-2-6-8" />
    <path
       style="fill:none;stroke:#000000;stroke-width:0.128116;stroke-linecap:butt;stroke-linejoin:miter;stroke-miterlimit:4;stroke-dasharray:0.384348, 0.128116;stroke-dashoffset:0;stroke-opacity:1"
       d="m 185.46648,50.34398 -9.9839,0.17694"
       id="path40303-0-2" />
    <path
       style="fill:none;stroke:#000000;stroke-width:0.109178;stroke-linecap:butt;stroke-linejoin:miter;stroke-miterlimit:4;stroke-dasharray:0.327535, 0.109178;stroke-dashoffset:0;stroke-opacity:1"
       d="m 191.03631,54.8696 -5.57075,-4.5263"
       id="path40303-0-2-8" />
    <path
       style="fill:none;stroke:#000000;stroke-width:0.109178;stroke-linecap:butt;stroke-linejoin:miter;stroke-miterlimit:4;stroke-dasharray:0.327535, 0.109178;stroke-dashoffset:0;stroke-opacity:1"
       d="m 183.27724,68.58301 -5.57075,-4.5263"
       id="path40303-0-2-8-2" />
    <path
       style="fill:none;stroke:#000000;stroke-width:0.116382;stroke-linecap:butt;stroke-linejoin:miter;stroke-miterlimit:4;stroke-dasharray:none;stroke-opacity:1;marker-start:url(#marker47426);marker-end:url(#Arrow1Mend)"
       d="m 183.27724,68.58301 1.7575,-3.10629 6.00157,-10.60712"
       id="path8147-2-7"
       sodipodi:nodetypes="ccc" />
    <text
       xml:space="preserve"
       style="font-style:normal;font-weight:normal;font-size:4.23333px;line-height:1.25;font-family:sans-serif;fill:#000000;fill-opacity:1;stroke:none;stroke-width:0.264583"
       x="187.72011"
       y="64.004501"
       id="text18393-1-3-6-9"><tspan
         sodipodi:role="line"
         id="tspan18391-0-5-4-8"
         style="font-size:4.23333px;stroke-width:0.264583"
         x="187.72011"
         y="64.004501">l</tspan></text>
    <text
       xml:space="preserve"
       style="font-style:normal;font-weight:normal;font-size:4.23333px;line-height:1.25;font-family:sans-serif;fill:#000000;fill-opacity:1;stroke:none;stroke-width:0.264583"
       x="178.87613"
       y="55.367313"
       id="text49835"><tspan
         sodipodi:role="line"
         id="tspan49833"
         style="font-size:4.23333px;stroke-width:0.264583"
         x="178.87613"
         y="55.367313">θ</tspan></text>
    <text
       xml:space="preserve"
       style="font-style:normal;font-weight:normal;font-size:3.175px;line-height:1.25;font-family:sans-serif;fill:#000000;fill-opacity:1;stroke:none;stroke-width:0.264583"
       x="-60.575047"
       y="175.41129"
       id="text54035"
       transform="rotate(-90)"><tspan
         sodipodi:role="line"
         id="tspan54033"
         style="font-size:3.175px;stroke-width:0.264583"
         x="-60.575047"
         y="175.41129">lcosθ</tspan></text>
    <text
       xml:space="preserve"
       style="font-style:normal;font-weight:normal;font-size:3.175px;line-height:1.25;font-family:sans-serif;fill:#000000;fill-opacity:1;stroke:none;stroke-width:0.264583"
       x="177.84882"
       y="49.565685"
       id="text54035-8"><tspan
         sodipodi:role="line"
         id="tspan54033-4"
         style="font-size:3.175px;stroke-width:0.264583"
         x="177.84882"
         y="49.565685">lsinθ</tspan></text>
    <path
       style="fill:none;stroke:#000000;stroke-width:0.264583px;stroke-linecap:butt;stroke-linejoin:miter;stroke-opacity:1;marker-end:url(#Arrow1Lend-5-3)"
       d="m 11.451939,36.355333 0.26455,-9.34739"
       id="path8147-2-76" />
    <path
       style="fill:none;stroke:#000000;stroke-width:0.23613px;stroke-linecap:butt;stroke-linejoin:miter;stroke-opacity:1;marker-start:url(#Arrow1Lstart-2-1)"
       d="M 20.793436,36.355333 H 11.451939"
       id="path8149-9-7" />
    <text
       xml:space="preserve"
       style="font-style:normal;font-weight:normal;font-size:3.175px;line-height:1.25;font-family:sans-serif;fill:#000000;fill-opacity:1;stroke:none;stroke-width:0.264583"
       x="19.512873"
       y="39.026932"
       id="text19585-2-2"><tspan
         sodipodi:role="line"
         id="tspan19583-4-1"
         style="font-size:3.175px;stroke-width:0.264583"
         x="19.512873"
         y="39.026932">x</tspan></text>
    <text
       xml:space="preserve"
       style="font-style:normal;font-weight:normal;font-size:3.175px;line-height:1.25;font-family:sans-serif;fill:#000000;fill-opacity:1;stroke:none;stroke-width:0.264583"
       x="12.778561"
       y="27.483719"
       id="text19585-7-7"><tspan
         sodipodi:role="line"
         id="tspan19583-1-3"
         style="font-size:3.175px;stroke-width:0.264583"
         x="12.778561"
         y="27.483719">y</tspan></text>
    <text
       xml:space="preserve"
       style="font-style:normal;font-weight:normal;font-size:4.23333px;line-height:1.25;font-family:sans-serif;fill:#000000;fill-opacity:1;stroke:none;stroke-width:0.264583"
       x="18.518202"
       y="83.37265"
       id="text14813-5"><tspan
         sodipodi:role="line"
         id="tspan14811-0"
         style="font-size:4.23333px;stroke-width:0.264583"
         x="18.518202"
         y="83.37265">a.)</tspan></text>
    <text
       xml:space="preserve"
       style="font-style:normal;font-weight:normal;font-size:4.23333px;line-height:1.25;font-family:sans-serif;fill:#000000;fill-opacity:1;stroke:none;stroke-width:0.264583"
       x="107.65854"
       y="83.016083"
       id="text14813-5-8"><tspan
         sodipodi:role="line"
         id="tspan14811-0-4"
         style="font-size:4.23333px;stroke-width:0.264583"
         x="107.65854"
         y="83.016083">b.)</tspan></text>
    <text
       xml:space="preserve"
       style="font-style:normal;font-weight:normal;font-size:4.23333px;line-height:1.25;font-family:sans-serif;fill:#000000;fill-opacity:1;stroke:none;stroke-width:0.264583"
       x="168.50475"
       y="82.663345"
       id="text14813-5-5"><tspan
         sodipodi:role="line"
         id="tspan14811-0-2"
         style="font-size:4.23333px;stroke-width:0.264583"
         x="168.50475"
         y="82.663345">c.)</tspan></text>
  </g>
</svg>
