<?xml version="1.0" encoding="UTF-8" standalone="no"?>
<!-- Created with Inkscape (http://www.inkscape.org/) -->

<svg
   width="210mm"
   height="297mm"
   viewBox="0 0 210 297"
   version="1.1"
   id="svg5"
   inkscape:version="1.1.1 (3bf5ae0d25, 2021-09-20)"
   sodipodi:docname="rysunek.svg"
   xmlns:inkscape="http://www.inkscape.org/namespaces/inkscape"
   xmlns:sodipodi="http://sodipodi.sourceforge.net/DTD/sodipodi-0.dtd"
   xmlns="http://www.w3.org/2000/svg"
   xmlns:svg="http://www.w3.org/2000/svg">
  <sodipodi:namedview
     id="namedview7"
     pagecolor="#ffffff"
     bordercolor="#666666"
     borderopacity="1.0"
     inkscape:pageshadow="2"
     inkscape:pageopacity="0.0"
     inkscape:pagecheckerboard="0"
     inkscape:document-units="mm"
     showgrid="false"
     inkscape:snap-intersection-paths="true"
     inkscape:snap-object-midpoints="true"
     inkscape:zoom="3.2647494"
     inkscape:cx="407.08724"
     inkscape:cy="179.42435"
     inkscape:window-width="1280"
     inkscape:window-height="971"
     inkscape:window-x="1912"
     inkscape:window-y="-8"
     inkscape:window-maximized="1"
     inkscape:current-layer="layer1"
     inkscape:snap-others="true"
     inkscape:object-nodes="false"
     inkscape:snap-grids="true" />
  <defs
     id="defs2">
    <marker
       style="overflow:visible;"
       id="marker2276"
       refX="0.0"
       refY="0.0"
       orient="auto"
       inkscape:stockid="Arrow1Lend"
       inkscape:isstock="true">
      <path
         transform="scale(0.8) rotate(180) translate(12.5,0)"
         style="fill-rule:evenodd;fill:context-stroke;stroke:context-stroke;stroke-width:1.0pt;"
         d="M 0.0,0.0 L 5.0,-5.0 L -12.5,0.0 L 5.0,5.0 L 0.0,0.0 z "
         id="path2274" />
    </marker>
    <marker
       style="overflow:visible;"
       id="Arrow1Lend"
       refX="0.0"
       refY="0.0"
       orient="auto"
       inkscape:stockid="Arrow1Lend"
       inkscape:isstock="true">
      <path
         transform="scale(0.8) rotate(180) translate(12.5,0)"
         style="fill-rule:evenodd;fill:context-stroke;stroke:context-stroke;stroke-width:1.0pt;"
         d="M 0.0,0.0 L 5.0,-5.0 L -12.5,0.0 L 5.0,5.0 L 0.0,0.0 z "
         id="path1551" />
    </marker>
    <marker
       style="overflow:visible"
       id="Arrow1Lstart"
       refX="0.0"
       refY="0.0"
       orient="auto"
       inkscape:stockid="Arrow1Lstart"
       inkscape:isstock="true">
      <path
         transform="scale(0.8) translate(12.5,0)"
         style="fill-rule:evenodd;fill:context-stroke;stroke:context-stroke;stroke-width:1.0pt"
         d="M 0.0,0.0 L 5.0,-5.0 L -12.5,0.0 L 5.0,5.0 L 0.0,0.0 z "
         id="path1548" />
    </marker>
    <marker
       style="overflow:visible"
       id="marker2276-4"
       refX="0"
       refY="0"
       orient="auto"
       inkscape:stockid="Arrow1Lend"
       inkscape:isstock="true">
      <path
         transform="matrix(-0.8,0,0,-0.8,-10,0)"
         style="fill:context-stroke;fill-rule:evenodd;stroke:context-stroke;stroke-width:1pt"
         d="M 0,0 5,-5 -12.5,0 5,5 Z"
         id="path2274-4" />
    </marker>
    <marker
       style="overflow:visible"
       id="marker2276-5"
       refX="0"
       refY="0"
       orient="auto"
       inkscape:stockid="Arrow1Lend"
       inkscape:isstock="true">
      <path
         transform="matrix(-0.8,0,0,-0.8,-10,0)"
         style="fill:context-stroke;fill-rule:evenodd;stroke:context-stroke;stroke-width:1pt"
         d="M 0,0 5,-5 -12.5,0 5,5 Z"
         id="path2274-49" />
    </marker>
  </defs>
  <g
     inkscape:label="Warstwa 1"
     inkscape:groupmode="layer"
     id="layer1">
    <rect
       style="fill:#aaccff;fill-opacity:1;stroke:none;stroke-width:0.104626;stroke-miterlimit:4;stroke-dasharray:none;stroke-opacity:1"
       id="rect3211"
       width="9.0415955"
       height="8.5249224"
       x="161.46748"
       y="42.004745" />
    <rect
       style="fill:#808080;fill-rule:evenodd;stroke-width:0.125563"
       id="rect31"
       width="123.50137"
       height="3.7754745"
       x="43.155552"
       y="47.612682" />
    <ellipse
       style="fill:#808080;stroke-width:0.264583"
       id="path209"
       cx="42.906132"
       cy="45.991459"
       rx="3.7412837"
       ry="3.8659928" />
    <ellipse
       style="fill:#808080;stroke-width:0.264583"
       id="path209-3"
       cx="165.98828"
       cy="46.267208"
       rx="3.7412837"
       ry="3.8659928" />
    <path
       style="fill:none;stroke:#000000;stroke-width:0.264583px;stroke-linecap:butt;stroke-linejoin:miter;stroke-opacity:1"
       d="M 43.143482,42.085287 166.15863,42.438019"
       id="path423" />
    <path
       style="fill:none;stroke:#000000;stroke-width:0.264583px;stroke-linecap:butt;stroke-linejoin:miter;stroke-opacity:1"
       d="M 42.878934,49.779246 166.68773,50.176068"
       id="path425" />
    <ellipse
       style="fill:#550000;stroke-width:0.264583"
       id="path551"
       cx="42.906132"
       cy="45.991459"
       rx="1.0342022"
       ry="0.9976756" />
    <ellipse
       style="fill:#550000;stroke-width:0.264583"
       id="path551-2"
       cx="165.98828"
       cy="46.267208"
       rx="1.0342022"
       ry="0.9976756" />
    <rect
       style="fill:#333333;stroke-width:0.225808"
       id="rect679"
       width="9.1620607"
       height="4.3719277"
       x="98.773811"
       y="43.246834" />
    <ellipse
       style="fill:#916f6f;stroke-width:0.22818"
       id="path895"
       cx="103.24027"
       cy="46.045197"
       rx="1.5507381"
       ry="1.490903" />
    <path
       style="fill:none;stroke:#000000;stroke-width:0.1;stroke-linecap:butt;stroke-linejoin:miter;stroke-opacity:1;opacity:1;stroke-miterlimit:4;stroke-dasharray:0.2,0.1;stroke-dashoffset:0"
       d="M 103.39445,44.929186 103.25942,16.586357"
       id="path1054" />
    <rect
       style="opacity:1;fill:#808080;fill-opacity:1;stroke:none;stroke-width:0.1;stroke-miterlimit:4;stroke-dasharray:0.2, 0.1;stroke-dashoffset:0;stroke-opacity:1"
       id="rect5858"
       width="3.9907024"
       height="24.193634"
       x="71.245438"
       y="51.483604" />
    <rect
       style="fill:#808080;fill-opacity:1;stroke:none;stroke-width:0.1;stroke-miterlimit:4;stroke-dasharray:0.2, 0.1;stroke-dashoffset:0;stroke-opacity:1"
       id="rect5858-9"
       width="3.9907024"
       height="24.193634"
       x="132.15353"
       y="51.203926" />
    <rect
       style="opacity:1;fill:#808080;fill-opacity:1;stroke:none;stroke-width:0.0823421;stroke-miterlimit:4;stroke-dasharray:0.164684, 0.0823421;stroke-dashoffset:0;stroke-opacity:1"
       id="rect6269"
       width="81.673119"
       height="4.232779"
       x="62.241379"
       y="75.308197" />
    <rect
       style="fill:#483737;fill-rule:evenodd;stroke-width:0.43761"
       id="rect41"
       width="1.581028"
       height="22.052517"
       x="111.9957"
       y="-39.100124"
       transform="matrix(0.84092382,0.54115352,-0.49341233,0.86979554,0,0)" />
    <rect
       style="fill:#aa4400;stroke-width:0.264583"
       id="rect575"
       width="1.8526039"
       height="4.8667741"
       x="111.57242"
       y="-37.904865"
       inkscape:transform-center-x="-1.2036898"
       inkscape:transform-center-y="-2.1845195"
       transform="rotate(29.741634)" />
    <path
       style="fill:none;stroke:#000000;stroke-width:0.065;stroke-linecap:butt;stroke-linejoin:miter;stroke-miterlimit:4;stroke-dasharray:none;stroke-opacity:1;marker-start:url(#Arrow1Lstart);marker-end:url(#Arrow1Lend)"
       d="m 103.5104,23.43876 c 0,0 7.01389,-2.135265 9.11413,4.629725"
       id="path731" />
    <path
       style="fill:none;stroke:#000000;stroke-width:0.264583px;stroke-linecap:butt;stroke-linejoin:miter;stroke-opacity:1;marker-end:url(#Arrow1Lend)"
       d="M 42.906132,45.991459 185.9547,46.230905"
       id="path1961" />
    <path
       style="fill:none;stroke:#000000;stroke-width:0.264583px;stroke-linecap:butt;stroke-linejoin:miter;stroke-opacity:1;marker-end:url(#marker2276)"
       d="M 42.906132,45.991459 43.272852,5.3514706"
       id="path1988" />
    <path
       style="fill:#0000ff;stroke:#0000ff;stroke-width:0.1;stroke-linecap:butt;stroke-linejoin:miter;stroke-opacity:1;marker-end:url(#marker2276);stroke-miterlimit:4;stroke-dasharray:none;fill-opacity:1"
       d="m 98.77381,47.612683 -8.262422,0.03563"
       id="path2425" />
    <path
       style="fill:#0000ff;fill-opacity:1;stroke:#0000ff;stroke-width:0.1;stroke-linecap:butt;stroke-linejoin:miter;stroke-miterlimit:4;stroke-dasharray:none;stroke-opacity:1;marker-end:url(#marker2276-4)"
       d="m 107.93301,45.194198 8.26249,-0.0066"
       id="path2425-6" />
    <text
       xml:space="preserve"
       style="font-style:normal;font-weight:normal;font-size:6.13008px;line-height:1.25;font-family:sans-serif;fill:#000000;fill-opacity:1;stroke:none;stroke-width:0.153252"
       x="182.60664"
       y="52.392311"
       id="text3763"
       transform="scale(0.99374874,1.0062906)"><tspan
         sodipodi:role="line"
         id="tspan3761"
         style="stroke-width:0.153252"
         x="182.60664"
         y="52.392311">X</tspan></text>
    <text
       xml:space="preserve"
       style="font-style:normal;font-weight:normal;font-size:5.08679px;line-height:1.25;font-family:sans-serif;fill:#000000;fill-opacity:1;stroke:none;stroke-width:0.12717"
       x="44.31776"
       y="11.564685"
       id="text9413"
       transform="scale(1.0315899,0.96937748)"><tspan
         sodipodi:role="line"
         id="tspan9411"
         style="stroke-width:0.12717"
         x="44.31776"
         y="11.564685">Y</tspan></text>
    <text
       xml:space="preserve"
       style="font-style:normal;font-weight:normal;font-size:4.58235px;line-height:1.25;font-family:sans-serif;fill:#000000;fill-opacity:1;stroke:none;stroke-width:0.114559"
       x="109.38581"
       y="29.01935"
       id="text17484"
       transform="scale(0.96606238,1.0351298)"><tspan
         sodipodi:role="line"
         id="tspan17482"
         style="stroke-width:0.114559"
         x="109.38581"
         y="29.01935">θ</tspan></text>
    <g
       id="g23794"
       style="fill:#0000ff;fill-opacity:1"
       transform="translate(-4.2042205,-7.0731556)">
      <text
         xml:space="preserve"
         style="font-style:normal;font-weight:normal;font-size:5.3514px;line-height:1.25;font-family:sans-serif;fill:#0000ff;fill-opacity:1;stroke:none;stroke-width:0.133785"
         x="109.4735"
         y="52.816864"
         id="text20669"
         transform="scale(0.87943965,1.1370877)"><tspan
           sodipodi:role="line"
           id="tspan20667"
           style="fill:#0000ff;fill-opacity:1;stroke-width:0.133785"
           x="109.4735"
           y="52.816864">F</tspan></text>
      <text
         xml:space="preserve"
         style="font-style:normal;font-weight:normal;font-size:2.337px;line-height:1.25;font-family:sans-serif;fill:#0000ff;fill-opacity:1;stroke:none;stroke-width:0.058425"
         x="101.33058"
         y="58.644684"
         id="text23001"
         transform="scale(0.96538478,1.0358564)"><tspan
           sodipodi:role="line"
           id="tspan22999"
           style="fill:#0000ff;fill-opacity:1;stroke-width:0.058425"
           x="101.33058"
           y="58.644684">T</tspan><tspan
           sodipodi:role="line"
           style="fill:#0000ff;fill-opacity:1;stroke-width:0.058425"
           x="101.33058"
           y="61.565933"
           id="tspan23003" /></text>
    </g>
    <g
       id="g31360"
       style="fill:#0000ff;fill-opacity:1;stroke:none;stroke-opacity:1"
       transform="matrix(0.58517506,0,0,0.68443931,35.81776,9.8622793)">
      <text
         xml:space="preserve"
         style="font-style:normal;font-weight:normal;font-size:10.5833px;line-height:1.25;font-family:sans-serif;fill:#0000ff;fill-opacity:1;stroke:none;stroke-width:0.264583;stroke-opacity:1"
         x="74.910156"
         y="24.881475"
         id="text25862"><tspan
           sodipodi:role="line"
           id="tspan25860"
           style="fill:#0000ff;fill-opacity:1;stroke:none;stroke-width:0.264583;stroke-opacity:1"
           x="74.910156"
           y="24.881475">F</tspan></text>
      <text
         xml:space="preserve"
         style="font-style:normal;font-weight:normal;font-size:3.40889px;line-height:1.25;font-family:sans-serif;fill:#0000ff;fill-opacity:1;stroke:none;stroke-width:0.085222;stroke-opacity:1"
         x="80.340683"
         y="25.619743"
         id="text28950"
         transform="scale(0.97197591,1.0288321)"><tspan
           sodipodi:role="line"
           id="tspan28948"
           style="fill:#0000ff;fill-opacity:1;stroke:none;stroke-width:0.085222;stroke-opacity:1"
           x="80.340683"
           y="25.619743">S</tspan></text>
    </g>
    <path
       style="fill:#000000;fill-opacity:1;stroke:#0000ff;stroke-width:0.065;stroke-linecap:butt;stroke-linejoin:miter;stroke-miterlimit:4;stroke-dasharray:none;stroke-opacity:1;marker-end:url(#marker2276)"
       d="m 80.158655,20.401472 2.536291,0.0095 0.409967,0.0015"
       id="path31542"
       sodipodi:nodetypes="ccc" />
    <g
       id="g32102"
       transform="translate(-80.158534,-20.078623)">
      <path
         style="fill:#000000;fill-opacity:1;stroke:#0000ff;stroke-width:0.065;stroke-linecap:butt;stroke-linejoin:miter;stroke-miterlimit:4;stroke-dasharray:none;stroke-opacity:1;marker-end:url(#marker2276-5)"
         d="m 80.158655,20.401472 2.536291,0.0095 0.409967,0.0015"
         id="path31542-9"
         sodipodi:nodetypes="ccc" />
    </g>
  </g>
</svg>
